ALL ANSWERS OF THE HOMEWORK
…
# 先比较两道习题的第一个根
results_min_difference <- results_combined %>%
  filter(!is.na(A_k)) %>%
  group_by(k) %>%
  summarize(
    min_a_11_4 = ifelse(any(source == "11.4"), min(A_k[source == "11.4"], na.rm = TRUE), NA),
    min_a_11_5 = ifelse(any(source == "11.5"), min(A_k[source == "11.5"], na.rm = TRUE), NA),
    difference = min_a_11_5 - min_a_11_4
  )

# 输出比较结果
print(results_min_difference)

## # A tibble: 25 × 4
##        k min_a_11_4 min_a_11_5    difference
##    <dbl>      <dbl>      <dbl>         <dbl>
##  1     4       1.49       1.49  0.000000373 
##  2     5       1.53       1.53  0.0000000352
##  3     6       1.56       1.56 -0.000000215 
##  4     7       1.58       1.58 -0.000000397 
##  5     8       1.60       1.60 -0.000000756 
##  6     9       1.61       1.61 -0.000000932 
##  7    10       1.63       1.63 -0.00000125  
##  8    11       1.63       1.63 -0.00000125  
##  9    12       1.64       1.64 -0.00000171  
## 10    13       1.65       1.65 -0.00000140  
## # ℹ 15 more rows
…
